Module 8 — Yogurt Study Boxplots with faceting
…
library(tidyverse)
library(here)
library(ggpubr)

# Participant metadata
table_01 <- read_csv(
  here("data/group_a_yogurt/01_participant_metadata_yogurt.csv"),
  col_types = cols(sex = col_character())
)

Preview

table_01

# A tibble: 51 × 7
   pid    arm            days_since_last_sex birth_control   age education sex  
   <chr>  <chr>                        <dbl> <chr>         <dbl> <chr>     <chr>
 1 pid_01 unchanged_diet                   2 no hormonal …    28 grade 10… fema…
 2 pid_02 unchanged_diet                   4 Depoprovera      34 less tha… fema…
 3 pid_03 unchanged_diet                   3 no hormonal …    32 grade 10… fema…
 4 pid_04 yogurt                           1 Depoprovera      30 grade 10… fema…
 5 pid_05 yogurt                           5 Depoprovera      34 less tha… fema…
 6 pid_06 unchanged_diet                   9 no hormonal …    27 grade 10… fema…
 7 pid_07 yogurt                           3 no hormonal …    25 less tha… fema…
 8 pid_08 yogurt                           4 no hormonal …    26 grade 10… fema…
 9 pid_09 unchanged_diet                  10 Depoprovera      34 grade 10… fema…
10 pid_10 yogurt                           7 Depoprovera      32 post-sec… fema…
# ℹ 41 more rows
…
